EESchema Schematic File Version 2
LIBS:hetii
LIBS:power
LIBS:device
LIBS:transistors
LIBS:conn
LIBS:linear
LIBS:regul
LIBS:74xx
LIBS:cmos4000
LIBS:adc-dac
LIBS:memory
LIBS:xilinx
LIBS:microcontrollers
LIBS:dsp
LIBS:microchip
LIBS:analog_switches
LIBS:motorola
LIBS:texas
LIBS:intel
LIBS:audio
LIBS:interface
LIBS:digital-audio
LIBS:philips
LIBS:display
LIBS:cypress
LIBS:siliconi
LIBS:opto
LIBS:atmel
LIBS:contrib
LIBS:valves
LIBS:ftdi
LIBS:sensors
LIBS:espboard-cache
EELAYER 25 0
EELAYER END
$Descr A4 11693 8268
encoding utf-8
Sheet 1 1
Title ""
Date ""
Rev ""
Comp ""
Comment1 ""
Comment2 ""
Comment3 ""
Comment4 ""
$EndDescr
$Comp
L ESP8266-ESP-03 U3
U 1 1 56AD02AB
P 6775 2450
F 0 "U3" H 6775 3175 60  0000 C CNN
F 1 "ESP8266-ESP-03" H 6775 2325 60  0000 C CNN
F 2 "kicadlib:ESP8266-ESP-03" H 6775 2450 60  0001 C CNN
F 3 "" H 6775 2450 60  0000 C CNN
	1    6775 2450
	1    0    0    -1  
$EndComp
$Comp
L FT232RL U2
U 1 1 56AD02F6
P 4150 2550
F 0 "U2" H 3500 3450 50  0000 L CNN
F 1 "FT232RL" H 4550 3450 50  0000 L CNN
F 2 "Housings_SSOP:SSOP-28_5.3x10.2mm_Pitch0.65mm" H 4150 2550 50  0001 C CNN
F 3 "" H 4150 2550 50  0000 C CNN
	1    4150 2550
	1    0    0    -1  
$EndComp
$Comp
L AP1117E33 U1
U 1 1 56AD03A0
P 2450 1400
F 0 "U1" H 2550 1150 50  0000 C CNN
F 1 "AP1117E33" H 2450 1650 50  0000 C CNN
F 2 "TO_SOT_Packages_SMD:SOT-223" H 2450 1400 60  0001 C CNN
F 3 "" H 2450 1400 60  0000 C CNN
	1    2450 1400
	1    0    0    -1  
$EndComp
$Comp
L USB-A X1
U 1 1 56AD05AD
P 1650 2300
F 0 "X1" V 1920 2310 50  0000 L BNN
F 1 "USB-A" V 1440 2300 50  0000 L BNN
F 2 "kicadlib:USB-A-PLUG" H 2140 2750 50  0001 C CNN
F 3 "" V 1800 2300 60  0000 C CNN
	1    1650 2300
	0    -1   1    0   
$EndComp
$Comp
L C C2
U 1 1 56AD0741
P 2000 1550
F 0 "C2" H 2025 1650 50  0000 L CNN
F 1 "100nF" H 2025 1450 50  0000 L CNN
F 2 "Capacitors_SMD:C_1206_HandSoldering" H 2038 1400 30  0001 C CNN
F 3 "" H 2000 1550 60  0000 C CNN
	1    2000 1550
	1    0    0    -1  
$EndComp
$Comp
L C C3
U 1 1 56AD07D6
P 2900 1550
F 0 "C3" H 2925 1650 50  0000 L CNN
F 1 "100nF" H 2900 1750 50  0000 L CNN
F 2 "Capacitors_SMD:C_1206_HandSoldering" H 2938 1400 30  0001 C CNN
F 3 "" H 2900 1550 60  0000 C CNN
	1    2900 1550
	1    0    0    -1  
$EndComp
$Comp
L GND #PWR01
U 1 1 56AD0A05
P 2450 1850
F 0 "#PWR01" H 2450 1600 50  0001 C CNN
F 1 "GND" H 2450 1700 50  0000 C CNN
F 2 "" H 2450 1850 60  0000 C CNN
F 3 "" H 2450 1850 60  0000 C CNN
	1    2450 1850
	1    0    0    -1  
$EndComp
$Comp
L GND #PWR02
U 1 1 56AD0AA5
P 1750 2950
F 0 "#PWR02" H 1750 2700 50  0001 C CNN
F 1 "GND" H 1750 2800 50  0000 C CNN
F 2 "" H 1750 2950 60  0000 C CNN
F 3 "" H 1750 2950 60  0000 C CNN
	1    1750 2950
	1    0    0    -1  
$EndComp
$Comp
L C C4
U 1 1 56AD0C47
P 3150 1700
F 0 "C4" H 3175 1800 50  0000 L CNN
F 1 "100nF" H 3150 1900 50  0000 L CNN
F 2 "Capacitors_SMD:C_1206_HandSoldering" H 3188 1550 30  0001 C CNN
F 3 "" H 3150 1700 60  0000 C CNN
	1    3150 1700
	1    0    0    -1  
$EndComp
$Comp
L GND #PWR03
U 1 1 56AD0D81
P 4150 3700
F 0 "#PWR03" H 4150 3450 50  0001 C CNN
F 1 "GND" H 4150 3550 50  0000 C CNN
F 2 "" H 4150 3700 60  0000 C CNN
F 3 "" H 4150 3700 60  0000 C CNN
	1    4150 3700
	1    0    0    -1  
$EndComp
NoConn ~ 3350 2550
NoConn ~ 3350 2750
NoConn ~ 3350 2950
$Comp
L GND #PWR04
U 1 1 56AD130E
P 6075 1950
F 0 "#PWR04" H 6075 1700 50  0001 C CNN
F 1 "GND" H 6075 1975 50  0000 C CNN
F 2 "" H 6075 1950 60  0000 C CNN
F 3 "" H 6075 1950 60  0000 C CNN
	1    6075 1950
	1    0    0    -1  
$EndComp
$Comp
L D D4
U 1 1 56AD1698
P 6750 1550
F 0 "D4" H 6850 1575 50  0000 C CNN
F 1 "1N4148" H 7100 1575 50  0000 C CNN
F 2 "Resistors_Universal:Resistor_SMD+THTuniversal_1206_RM10_HandSoldering" H 6750 1550 60  0001 C CNN
F 3 "" H 6750 1550 60  0000 C CNN
	1    6750 1550
	1    0    0    -1  
$EndComp
$Comp
L R R4
U 1 1 56AD177A
P 7350 1350
F 0 "R4" V 7275 1350 50  0000 C CNN
F 1 "10k" V 7350 1350 50  0000 C CNN
F 2 "Resistors_SMD:R_1206_HandSoldering" V 7280 1350 30  0001 C CNN
F 3 "" H 7350 1350 30  0000 C CNN
	1    7350 1350
	-1   0    0    1   
$EndComp
$Comp
L R R3
U 1 1 56AD1A51
P 5800 1350
F 0 "R3" V 5725 1350 50  0000 C CNN
F 1 "10k" V 5800 1350 50  0000 C CNN
F 2 "Resistors_SMD:R_1206_HandSoldering" V 5730 1350 30  0001 C CNN
F 3 "" H 5800 1350 30  0000 C CNN
	1    5800 1350
	-1   0    0    1   
$EndComp
$Comp
L D D3
U 1 1 56AD1E22
P 5650 2250
F 0 "D3" H 5650 2350 50  0000 C CNN
F 1 "1N4148" H 5650 2150 50  0000 C CNN
F 2 "Resistors_Universal:Resistor_SMD+THTuniversal_1206_RM10_HandSoldering" H 5650 2250 60  0001 C CNN
F 3 "" H 5650 2250 60  0000 C CNN
	1    5650 2250
	1    0    0    -1  
$EndComp
NoConn ~ 4950 2150
NoConn ~ 4950 2350
NoConn ~ 4950 2450
NoConn ~ 4950 2550
$Comp
L LED D1
U 1 1 56AD20E2
P 5050 2650
F 0 "D1" H 5050 2750 50  0000 C CNN
F 1 "LED" H 5050 2550 50  0000 C CNN
F 2 "LEDs:LED-3MM" H 5050 2650 60  0001 C CNN
F 3 "" H 5050 2650 60  0000 C CNN
	1    5050 2650
	0    -1   -1   0   
$EndComp
$Comp
L LED D2
U 1 1 56AD2135
P 5300 2650
F 0 "D2" H 5300 2750 50  0000 C CNN
F 1 "LED" H 5300 2550 50  0000 C CNN
F 2 "LEDs:LED-3MM" H 5300 2650 60  0001 C CNN
F 3 "" H 5300 2650 60  0000 C CNN
	1    5300 2650
	0    -1   -1   0   
$EndComp
$Comp
L C C5
U 1 1 56AD140E
P 6075 1350
F 0 "C5" H 6100 1450 50  0000 L CNN
F 1 "100nF" H 6000 1600 50  0000 L CNN
F 2 "Capacitors_SMD:C_1206_HandSoldering" H 6113 1200 30  0001 C CNN
F 3 "" H 6075 1350 60  0000 C CNN
	1    6075 1350
	1    0    0    -1  
$EndComp
$Comp
L R R5
U 1 1 56AD32F1
P 7500 1700
F 0 "R5" V 7580 1700 50  0000 C CNN
F 1 "10k" V 7500 1700 50  0000 C CNN
F 2 "Resistors_SMD:R_1206_HandSoldering" V 7430 1700 30  0001 C CNN
F 3 "" H 7500 1700 30  0000 C CNN
	1    7500 1700
	1    0    0    -1  
$EndComp
$Comp
L C C1
U 1 1 56AD3A70
P 1800 1550
F 0 "C1" H 1825 1650 50  0000 L CNN
F 1 "100nF" H 1725 1775 50  0000 L CNN
F 2 "Capacitors_SMD:C_1206_HandSoldering" H 1838 1400 30  0001 C CNN
F 3 "" H 1800 1550 60  0000 C CNN
	1    1800 1550
	1    0    0    -1  
$EndComp
$Comp
L R R1
U 1 1 56AD41B6
P 5050 1425
F 0 "R1" V 5130 1425 50  0000 C CNN
F 1 "1k" V 5050 1425 50  0000 C CNN
F 2 "Resistors_SMD:R_1206_HandSoldering" V 4980 1425 30  0001 C CNN
F 3 "" H 5050 1425 30  0000 C CNN
	1    5050 1425
	1    0    0    -1  
$EndComp
$Comp
L R R2
U 1 1 56AD4371
P 5300 1425
F 0 "R2" V 5380 1425 50  0000 C CNN
F 1 "1k" V 5300 1425 50  0000 C CNN
F 2 "Resistors_SMD:R_1206_HandSoldering" V 5230 1425 30  0001 C CNN
F 3 "" H 5300 1425 30  0000 C CNN
	1    5300 1425
	1    0    0    -1  
$EndComp
Text Label 4950 1850 0    60   ~ 0
TXD
Text Label 4950 1950 0    60   ~ 0
RXD
$Comp
L GND #PWR05
U 1 1 56AD69DB
P 7225 3150
F 0 "#PWR05" H 7225 2900 50  0001 C CNN
F 1 "GND" H 7225 3000 50  0000 C CNN
F 2 "" H 7225 3150 60  0000 C CNN
F 3 "" H 7225 3150 60  0000 C CNN
	1    7225 3150
	1    0    0    -1  
$EndComp
Text Label 7350 3250 0    60   ~ 0
+5V
Text Label 7350 2750 0    60   ~ 0
TXD
Text Label 7350 2850 0    60   ~ 0
RXD
$Comp
L GND #PWR06
U 1 1 56AD6ECE
P 7750 1625
F 0 "#PWR06" H 7750 1375 50  0001 C CNN
F 1 "GND" H 7750 1475 50  0000 C CNN
F 2 "" H 7750 1625 60  0000 C CNN
F 3 "" H 7750 1625 60  0000 C CNN
	1    7750 1625
	1    0    0    -1  
$EndComp
$Comp
L SMA K1
U 1 1 56AD1B70
P 6200 2925
F 0 "K1" H 6300 3175 60  0000 C CNN
F 1 "SMA" H 6300 2675 60  0000 C CNN
F 2 "kicadlib:SMA" H 6200 2925 60  0001 C CNN
F 3 "" H 6200 2925 60  0000 C CNN
	1    6200 2925
	1    0    0    -1  
$EndComp
$Comp
L GND #PWR07
U 1 1 56AD1DDB
P 6200 3325
F 0 "#PWR07" H 6200 3075 50  0001 C CNN
F 1 "GND" H 6200 3175 50  0000 C CNN
F 2 "" H 6200 3325 60  0000 C CNN
F 3 "" H 6200 3325 60  0000 C CNN
	1    6200 3325
	1    0    0    -1  
$EndComp
NoConn ~ 4950 3050
NoConn ~ 4950 3150
NoConn ~ 4950 3250
Text Label 5525 1850 0    60   ~ 0
TXE
Text Label 5525 1950 0    60   ~ 0
RXE
Text Label 7350 2550 0    60   ~ 0
TXE
Text Label 7350 2650 0    60   ~ 0
RXE
Text Label 2900 1200 0    60   ~ 0
+3v3
Text Label 2000 1075 0    60   ~ 0
+5V
$Comp
L PWR_FLAG #FLG08
U 1 1 56AD4C5B
P 3150 3550
F 0 "#FLG08" H 3150 3645 50  0001 C CNN
F 1 "PWR_FLAG" H 3150 3730 50  0000 C CNN
F 2 "" H 3150 3550 60  0000 C CNN
F 3 "" H 3150 3550 60  0000 C CNN
	1    3150 3550
	1    0    0    -1  
$EndComp
$Comp
L PWR_FLAG #FLG09
U 1 1 56AD4D77
P 1750 1900
F 0 "#FLG09" H 1750 1995 50  0001 C CNN
F 1 "PWR_FLAG" H 1950 1900 50  0000 C CNN
F 2 "" H 1750 1900 60  0000 C CNN
F 3 "" H 1750 1900 60  0000 C CNN
	1    1750 1900
	1    0    0    -1  
$EndComp
$Comp
L CONN_01X04 P1
U 1 1 56AD2B4A
P 7750 3600
F 0 "P1" H 7750 3850 50  0000 C CNN
F 1 "CONN_01X04" V 7850 3600 50  0000 C CNN
F 2 "Pin_Headers:Pin_Header_Straight_1x04" H 7750 3600 60  0001 C CNN
F 3 "" H 7750 3600 60  0000 C CNN
	1    7750 3600
	1    0    0    -1  
$EndComp
Text Label 7350 3450 0    60   ~ 0
TXE
Text Label 7350 3550 0    60   ~ 0
TXD
Text Label 7350 3650 0    60   ~ 0
RXE
Text Label 7350 3750 0    60   ~ 0
RXD
Connection ~ 2000 1400
Wire Wire Line
	1800 1700 2900 1700
Connection ~ 2450 1700
Wire Wire Line
	2450 1700 2450 1850
Wire Wire Line
	1750 2450 1750 2950
Wire Wire Line
	3350 2250 1750 2250
Wire Wire Line
	1750 2350 2450 2350
Wire Wire Line
	2450 2350 2450 2150
Wire Wire Line
	2450 2150 3350 2150
Wire Wire Line
	3150 1550 4050 1550
Wire Wire Line
	3350 1550 3350 1850
Connection ~ 3350 1550
Wire Wire Line
	2900 1700 2900 1850
Wire Wire Line
	2900 1850 3150 1850
Connection ~ 2900 1400
Wire Wire Line
	3150 3550 4350 3550
Connection ~ 4150 3550
Connection ~ 4250 3550
Wire Wire Line
	3350 3250 3350 3550
Connection ~ 3950 3550
Wire Wire Line
	4150 3550 4150 3700
Wire Wire Line
	6200 1950 6075 1950
Wire Wire Line
	6075 1950 6075 1500
Wire Wire Line
	5950 2200 6200 2200
Wire Wire Line
	5850 1950 5850 2300
Wire Wire Line
	5850 2300 6200 2300
Wire Wire Line
	6900 1550 7350 1550
Wire Wire Line
	5425 1550 6600 1550
Wire Wire Line
	6200 2100 5800 2100
Connection ~ 5800 2100
Wire Wire Line
	4950 2250 5500 2250
Wire Wire Line
	2750 1400 2900 1400
Wire Wire Line
	2900 1400 2900 1200
Wire Wire Line
	2000 1075 5300 1075
Wire Wire Line
	2000 1400 2000 950 
Wire Wire Line
	7350 1500 7350 1850
Connection ~ 6075 1200
Connection ~ 7350 1550
Wire Wire Line
	2900 1200 8450 1200
Connection ~ 5800 1200
Wire Wire Line
	6200 1850 6200 1200
Connection ~ 6200 1200
Wire Wire Line
	1575 1400 2150 1400
Connection ~ 2000 1700
Connection ~ 1800 1400
Connection ~ 4250 1075
Wire Wire Line
	5050 1275 5050 1075
Connection ~ 5050 1075
Wire Wire Line
	5050 1575 5050 2450
Wire Wire Line
	5300 1075 5300 1275
Wire Wire Line
	5300 1575 5300 2450
Wire Wire Line
	4950 2850 5050 2850
Wire Wire Line
	4950 2950 5300 2950
Wire Wire Line
	5300 2950 5300 2850
Wire Wire Line
	4950 1850 5025 1850
Wire Wire Line
	4950 1950 5025 1950
Wire Wire Line
	5525 1850 5950 1850
Wire Wire Line
	5525 1950 5850 1950
Wire Wire Line
	7350 1950 7950 1950
Wire Wire Line
	7350 2050 7950 2050
Wire Wire Line
	7950 2150 7350 2150
Wire Wire Line
	7950 2250 7350 2250
Wire Wire Line
	7950 2350 7350 2350
Wire Wire Line
	7950 2550 7350 2550
Wire Wire Line
	7950 2650 7350 2650
Wire Wire Line
	7950 2850 7350 2850
Wire Wire Line
	7500 1850 7500 2050
Connection ~ 7500 2050
Wire Wire Line
	6200 2450 6200 2625
Wire Wire Line
	5850 2825 5850 3225
Wire Wire Line
	6550 3225 6550 2825
Wire Wire Line
	5850 3225 6550 3225
Connection ~ 6550 3025
Connection ~ 5850 3025
Wire Wire Line
	6200 3225 6200 3325
Connection ~ 6200 3225
Wire Wire Line
	7350 1850 7950 1850
Wire Wire Line
	7950 2750 7350 2750
Wire Wire Line
	7950 3250 7350 3250
Connection ~ 3350 3550
Wire Wire Line
	7550 3450 7350 3450
Wire Wire Line
	7550 3550 7350 3550
Wire Wire Line
	7550 3650 7350 3650
Wire Wire Line
	7550 3750 7350 3750
Connection ~ 1750 2700
Connection ~ 1600 2700
Wire Wire Line
	7350 2450 7950 2450
Wire Wire Line
	7950 3050 7225 3050
Wire Wire Line
	7225 3050 7225 3150
$Comp
L L_Small L1
U 1 1 56AE05EE
P 1575 1725
F 0 "L1" H 1605 1765 50  0000 L CNN
F 1 "L_Small" H 1605 1685 50  0000 L CNN
F 2 "Resistors_Universal:Resistor_SMD+THTuniversal_2512_RM10_HandSoldering" H 1575 1725 60  0001 C CNN
F 3 "" H 1575 1725 60  0000 C CNN
	1    1575 1725
	-1   0    0    1   
$EndComp
Wire Wire Line
	1575 1400 1575 1625
Wire Wire Line
	4950 2050 5425 2050
Wire Wire Line
	5425 2050 5425 1550
Wire Wire Line
	1575 1825 1575 1950
Wire Wire Line
	1225 1950 1750 1950
Wire Wire Line
	1750 1900 1750 2150
Wire Wire Line
	4250 1550 4250 1075
Connection ~ 1750 1950
$Comp
L PWR_FLAG #FLG010
U 1 1 56AE29FA
P 2000 950
F 0 "#FLG010" H 2000 1045 50  0001 C CNN
F 1 "PWR_FLAG" H 2000 1130 50  0000 C CNN
F 2 "" H 2000 950 60  0000 C CNN
F 3 "" H 2000 950 60  0000 C CNN
	1    2000 950 
	1    0    0    -1  
$EndComp
Connection ~ 2000 1075
Wire Wire Line
	5950 1850 5950 2200
Connection ~ 5800 2250
$Comp
L SW_PUSH_SMALL SW1
U 1 1 56AE3B3F
P 5700 2800
F 0 "SW1" H 5850 2910 30  0000 C CNN
F 1 "RESET" H 5625 2750 30  0000 C CNN
F 2 "Buttons_Switches_ThroughHole:SW_PUSH_SMALL" H 5700 2800 60  0001 C CNN
F 3 "" H 5700 2800 60  0000 C CNN
	1    5700 2800
	0    -1   -1   0   
$EndComp
$Comp
L CONN_01X15 P2
U 1 1 56AE0BE7
P 8150 2550
F 0 "P2" H 8150 3350 50  0000 C CNN
F 1 "CONN_01X15" V 8250 2550 50  0000 C CNN
F 2 "Pin_Headers:Pin_Header_Straight_1x15" H 8150 2550 60  0001 C CNN
F 3 "" H 8150 2550 60  0000 C CNN
	1    8150 2550
	1    0    0    -1  
$EndComp
Wire Wire Line
	7950 3150 7950 3050
Wire Wire Line
	7950 2950 7350 2950
Text Label 7350 2950 0    60   ~ 0
+3v3
$Comp
L C C6
U 1 1 56AE4FB3
P 1950 2300
F 0 "C6" H 1975 2400 50  0000 L CNN
F 1 "10nF" H 1975 2200 50  0000 L CNN
F 2 "Capacitors_SMD:C_1206_HandSoldering" H 1988 2150 30  0001 C CNN
F 3 "" H 1950 2300 60  0000 C CNN
	1    1950 2300
	1    0    0    -1  
$EndComp
Wire Wire Line
	1750 2150 1950 2150
Wire Wire Line
	1950 2450 1750 2450
$Comp
L LED D5
U 1 1 56AE521B
P 1225 2150
F 0 "D5" H 1225 2250 50  0000 C CNN
F 1 "LED" H 1225 2050 50  0000 C CNN
F 2 "LEDs:LED-3MM" H 1225 2150 60  0001 C CNN
F 3 "" H 1225 2150 60  0000 C CNN
	1    1225 2150
	0    -1   -1   0   
$EndComp
$Comp
L R R6
U 1 1 56AE52A4
P 1225 2550
F 0 "R6" V 1305 2550 50  0000 C CNN
F 1 "1k" V 1225 2550 50  0000 C CNN
F 2 "Resistors_SMD:R_1206_HandSoldering" V 1155 2550 30  0001 C CNN
F 3 "" H 1225 2550 30  0000 C CNN
	1    1225 2550
	1    0    0    -1  
$EndComp
Connection ~ 1500 2700
Wire Wire Line
	1225 2350 1225 2400
Connection ~ 1575 1950
Wire Wire Line
	1225 2700 1750 2700
Wire Wire Line
	5800 1500 5800 2700
$Comp
L SW_PUSH_SMALL SW2
U 1 1 56AE6F37
P 7850 1575
F 0 "SW2" H 8000 1685 30  0000 C CNN
F 1 "Bootloader" H 8075 1625 30  0000 C CNN
F 2 "Buttons_Switches_ThroughHole:SW_PUSH_SMALL" H 7850 1575 60  0001 C CNN
F 3 "" H 7850 1575 60  0000 C CNN
	1    7850 1575
	1    0    0    -1  
$EndComp
Wire Wire Line
	5600 2900 5600 3025
Wire Wire Line
	5600 3025 5850 3025
Wire Wire Line
	7750 1475 7500 1475
Wire Wire Line
	7500 1475 7500 1550
Wire Wire Line
	7950 1850 7950 1675
Wire Wire Line
	7750 1475 7750 1625
$Comp
L BC817-40 Q1
U 1 1 56AE9073
P 8900 1900
F 0 "Q1" H 9100 1975 50  0000 L CNN
F 1 "BC817-40" H 9100 1900 50  0000 L CNN
F 2 "TO_SOT_Packages_SMD:SOT-23" H 9100 1825 50  0000 L CIN
F 3 "" H 8900 1900 50  0000 L CNN
	1    8900 1900
	1    0    0    -1  
$EndComp
$Comp
L R R7
U 1 1 56AE9108
P 8475 1900
F 0 "R7" V 8555 1900 50  0000 C CNN
F 1 "1k" V 8475 1900 50  0000 C CNN
F 2 "Resistors_SMD:R_1206_HandSoldering" V 8405 1900 30  0001 C CNN
F 3 "" H 8475 1900 30  0000 C CNN
	1    8475 1900
	0    1    1    0   
$EndComp
Wire Wire Line
	8325 1900 7875 1900
Wire Wire Line
	7875 1900 7875 1950
Connection ~ 7875 1950
Wire Wire Line
	8625 1900 8700 1900
$Comp
L LED D6
U 1 1 56AE93D4
P 9000 1400
F 0 "D6" H 9000 1500 50  0000 C CNN
F 1 "LED" H 9000 1300 50  0000 C CNN
F 2 "LEDs:LED-3MM" H 9000 1400 60  0001 C CNN
F 3 "" H 9000 1400 60  0000 C CNN
	1    9000 1400
	0    -1   -1   0   
$EndComp
Wire Wire Line
	9000 1700 9000 1600
$Comp
L GND #PWR011
U 1 1 56AE95F2
P 9000 2200
F 0 "#PWR011" H 9000 1950 50  0001 C CNN
F 1 "GND" H 9000 2050 50  0000 C CNN
F 2 "" H 9000 2200 60  0000 C CNN
F 3 "" H 9000 2200 60  0000 C CNN
	1    9000 2200
	1    0    0    -1  
$EndComp
Wire Wire Line
	9000 2100 9000 2200
$Comp
L R R8
U 1 1 56AE998D
P 8600 1200
F 0 "R8" V 8680 1200 50  0000 C CNN
F 1 "220" V 8600 1200 50  0000 C CNN
F 2 "Resistors_SMD:R_1206_HandSoldering" V 8530 1200 30  0001 C CNN
F 3 "" H 8600 1200 30  0000 C CNN
	1    8600 1200
	0    1    1    0   
$EndComp
Connection ~ 7350 1200
Wire Wire Line
	8750 1200 9000 1200
$EndSCHEMATC
